{
  "ret" : true,
  "data" : {
    "totalCount" : 1010,
    "currentPage" :1,
    "pageSize" : 20,
    "pageCount":10,
    "prePage":false,
    "nextPage":false,
    "list" : [
    {
      "id" : 1,
      "companyAccount" : "张三",
      "companyPassword" : "fddd",
      "companyName" : "公司名"
    },
    {
      "id" : 2,
      "companyAccount" : "李四",
      "companyPassword" : "fdd222d",
      "companyName" : "公司名2"
    }
  ]
  }
}