{
  "ret" : true,
  "data" : {
    "totalCount" : 1010,
    "currentPage" :1,
    "pageSize" : 20,
    "pageCount":20,
    "prePage":false,
    "nextPage":false,
    "list" : [
    {
      "address" : "用户家庭住址",
      "content" : "用户反馈问题",
      "createTime" : "2016-05-22",
      "eid" : 222,
      "id" : 1,
      "mobile" : "18575832500",
      "remark" : "工单备注",
      "repairStatus" : 1,
      "userId" : "用户id",
      "serviceman" : ""
    },{
      "address" : "用户家庭住址",
      "content" : "用户反馈问题",
      "createTime" : "2016-05-22",
      "eid" : 222,
      "id" : 2,
      "mobile" : "18575832500",
      "remark" : "工单备注",
      "repairStatus" : 2,
      "userId" : "用户id",
      "serviceman" : ""
    }
  ]
  }
}