{
  "ret" : true,
  "data" : {
    "totalCount" : 1010,
    "currentPage" :1,
    "pageSize" : 20,
    "pageCount":10,
    "prePage":false,
    "nextPage":false,
    "list" : [
      {
          "goodValue": 14342,
          "onOff": 1,
          "price": 75423,
          "product": 61715,
          "productType": 2,
          "productUnit": 4,
          "text": "测试内容on8t"
      },{
          "goodValue": 14342,
          "onOff": 2,
          "price": 75423,
          "product": 611715,
          "productType": 1,
          "productUnit": 1,
          "text": "测试内容on8t",
          "categoryName" : "test"
      },{
          "goodValue": 14342,
          "onOff": 1,
          "price": 75423,
          "product": 61725,
          "productType": 2,
          "productUnit": 2,
          "text": "测试内容on8t",
          "categoryName" : "test"
      }
    ]
  }
}