{
	"ret" : true,
	"data" : {
        "totalCount": 2000,
        "currentPage": 12, 
        "pageSize": 20,
        "pageCount": 50, 
        "prePage": 11, 
        "nextPage": 13,
        "list" : [
            {
                "content": "测试内容39ey",
                "createTime": "测试内容9wkq",
                "id": 81573,
                "logType": 1,
                "logTypeName" : "修改",
                "staffName" : "操作人"
            },
            {
                "content": "测试内容239ey",
                "createTime": "测试内容9wkq",
                "id": 815723,
                "logType": 2,
                "logTypeName" : "修改",
                "staffName" : "操作人"
            }
        ]
    }
}