{
  "ret" : true,
  "data" : {
    "totalCount" : 1010,
    "currentPage" :1,
    "pageSize" : 20,
    "pageCount":10,
    "prePage":false,
    "nextPage":false,
    "list" : [
    {
      "eid": "测试内容34wc",
      "equipName": "测试内容t4xu",
      "id": 76001,
      "remark": "测试内容4u3t",
      "renterAddress": "测试内容3mcs",
      "renterMobile": "测试内容4h13",
      "renterName": "测试内容hj2b",
      "staffId": 11764,
      "staffName": "测试内容m091",
      "createTime" : "2016-10-12 12:00:00"
    }
  ]
  }
}