{
  "ret" : true,
  "data" : {
    "totalCount" : 1010,
    "currentPage" :1,
    "pageSize" : 20,
    "pageCount":10,
    "prePage":false,
    "nextPage":false,
    "list" : [
      {
        "amount": 12807,
        "createTime": "测试内容t7vo",
        "eid": "测试内容d91d",
        "equipName": "测试内容0785",
        "goodValue": 24268,
        "orderNo": "测试内容i6c4",
        "orderStatus": 1,
        "payChannel": "测试内容18vd",
        "payStatus": 57488,
        "productType": 1,
        "remark": "测试内容rx42",
        "text": "测试内容524m",
        "userMobile":"18611222560",
        "userId": 80603
      },
      {
        "amount": 12807,
        "createTime": "测试内容t7vo",
        "eid": "测试内容d91d",
        "equipName": "测试内容0785",
        "goodValue": 24268,
        "orderNo": "测试内容i6c42",
        "orderStatus": 2,
        "payChannel": "测试内容18vd",
        "payStatus": 57488,
        "productType": 2,
        "remark": "测试内容rx42",
        "text": "测试内容524m",
        "userMobile":"18611222560",
        "userId": 80603
      }
    ]
  }
}